{
  "name": "cricket",
  "base": "PersistedModel",
  "idInjection": true,
  "options": {
    "validateUpsert": true
  },
  "properties": {
    "type": {
      "type": "string",
      "required": true
    },
    "overs": {
      "type": "number"
    },
    "stadium": {
      "type": "string"
    }
  },
  "validations": [],
  "relations": {},
  "acls": [],
  "methods": {}
}
